{
  "dependencies_target": [
    "qtconnectivity5-dev",
    "libqt5bluetooth5",
    "libtelepathy-qt5-dev",
    "libqmenumodel-dev",
    "libquazip5-dev",
    "liburl-dispatcher1-dev",
    "qtpositioning5-dev"
  ],
  "builder": "qmake"
}